node,n1,n2,n3,n4,n5,n6
4thFloorBladeStaircase,Gallery414,Gallery415,4thFloorStudio,,,
4thFloorStudio,Gallery414,4thFloorBladeStaircase,Gallery412,,,
4thEscalator,Gallery420,Gallery400,,,,
Gallery400,Gallery401,4thEscalator,,,,
Gallery401,Gallery402,Gallery400,,,,
Gallery402,Gallery401,Gallery403,,,,
Gallery403,Gallery404,Gallery402,,,,
Gallery404,Gallery405,Gallery403,,,,
Gallery405,Gallery407,Gallery404,Gallery406,,,
Gallery406,Gallery405,Gallery415,,,,
Gallery407,Gallery408,Gallery405,,,,
Gallery408,Gallery409,Gallery407,Gallery410,,,
Gallery409,Gallery408,,,,,
Gallery410,Gallery412,Gallery408,,,,
Gallery411,Gallery412,,,,,
Gallery412,Gallery414,4thFloorStudio,Gallery412,Gallery410,Gallery411,Gallery413
Gallery413,Gallery412,,,,,
Gallery414,4thFloorStudio,4thFloorBladeStaircase,Gallery412,,,
Gallery415,Gallery417,Gallery418,Gallery406,Gallery416,4thFloorBladeStaircase,
Gallery416,Gallery415,,,,,
Gallery417,Gallery415,,,,,
Gallery418,Gallery415,Gallery419,,,,
Gallery419,Gallery420,Gallery418,,,,
Gallery420,4thEscalator,Gallery419,,,,